Utilities for Scoring and Assessing Predictions • scoringutils
…
##      true_value id  model prediction boundary range horizon
##   1:   2.659261  1 model1 -0.6448536    lower    90       1
##   2:   2.659261  1 model1  0.3255102    lower    50       1
##   3:   2.659261  1 model1  1.0000000    lower     0       1
##  ---                                                       
## 718:  30.189608 30 model2 31.3873685    upper    90       2
## 719:  30.189608 30 model2 30.6399809    upper    50       2
## 720:  30.189608 30 model2 31.2576984    upper     0       2

sample based format with either continuous or integer values

print(scoringutils::integer_example_data, 3, 3)

## # A tibble: 6,000 x 6
## # Groups:   id [30]
##       id model  true_value sample prediction horizon
##    <int> <chr>       <dbl>  <int>      <dbl>   <dbl>
##  1     1 model1          6      1          5       1
##  2     1 model1          6      2          4       1
##  3     1 model1          6      3          3       1
##  4     1 model1          6      4          3       1
##  5     1 model1          6      5          4       1
##  6     1 model1          6      6          4       1
##  7     1 model1          6      7          5       1
##  8     1 model1          6      8          4       1
##  9     1 model1          6      9          4       1
## 10     1 model1          6     10          6       1
## # … with 5,990 more rows
…
##       id  model  true_value sample   prediction horizon
##    1:  1 model1  0.03007379      1 -0.203426069       1
##    2:  1 model1  0.03007379      2  0.007621269       1
##    3:  1 model1  0.03007379      3 -2.086657003       1
##   ---                                                  
## 5998: 30 model2 -2.93749990     48 -0.079900522       2
## 5999: 30 model2 -2.93749990     49 -1.178524017       2
## 6000: 30 model2 -2.93749990     50  0.638750918       2

forecasts in a binary format:

print(scoringutils::binary_example_data, 3, 3)

## # A tibble: 120 x 5
## # Groups:   id, model [60]
##       id model  horizon prediction true_value
##    <int> <fct>    <dbl>      <dbl>      <dbl>
##  1     1 model1       1    0.746            0
##  2     1 model1       2    0.522            0
##  3     1 model2       1    0.00958          0
##  4     1 model2       2    0.00671          0
##  5     2 model1       1    0.730            0
##  6     2 model1       2    0.511            0
##  7     2 model2       1    0.0274           0
##  8     2 model2       2    0.0192           0
##  9     3 model1       1    0.543            0
## 10     3 model1       2    0.380            0
## # … with 110 more rows
…
