…
sample based format with either continuous or integer values

``` r
print(scoringutils::integer_example_data, 3, 3)
#> # A tibble: 6,000 x 6
#> # Groups:   id [30]
#>       id model  true_value sample prediction horizon
#>    <int> <chr>       <dbl>  <int>      <dbl>   <dbl>
#>  1     1 model1          6      1          5       1
#>  2     1 model1          6      2          4       1
#>  3     1 model1          6      3          3       1
#>  4     1 model1          6      4          3       1
#>  5     1 model1          6      5          4       1
#>  6     1 model1          6      6          4       1
#>  7     1 model1          6      7          5       1
#>  8     1 model1          6      8          4       1
#>  9     1 model1          6      9          4       1
#> 10     1 model1          6     10          6       1
#> # … with 5,990 more rows
…
forecasts in a binary format:

``` r
print(scoringutils::binary_example_data, 3, 3)
#> # A tibble: 120 x 5
#> # Groups:   id, model [60]
#>       id model  horizon prediction true_value
#>    <int> <fct>    <dbl>      <dbl>      <dbl>
#>  1     1 model1       1    0.746            0
#>  2     1 model1       2    0.522            0
#>  3     1 model2       1    0.00958          0
#>  4     1 model2       2    0.00671          0
#>  5     2 model1       1    0.730            0
#>  6     2 model1       2    0.511            0
#>  7     2 model2       1    0.0274           0
#>  8     2 model2       2    0.0192           0
#>  9     3 model1       1    0.543            0
#> 10     3 model1       2    0.380            0
#> # … with 110 more rows
```
…
